…
```
## [1] 318   6
```

```
## # A tibble: 318 × 6
##    village       groznyy  fire deaths preattack postattack
##    <chr>           <dbl> <dbl>  <dbl>     <dbl>      <dbl>
##  1 Elistanzhi          0     0     NA         4          3
##  2 Malye Shuani        0     1      0         0          1
##  3 Belgatoy            0     1     34         1          0
##  4 Oktya'brskoe        0     0     NA         0          0
##  5 Chiri-Yurt          0     0     NA         4          5
##  6 Gansolchu           0     1      0         0          0
##  7 Achkoi-Martan       0     0     NA         4          8
##  8 Khidi-Khutor        0     1      0         3          1
##  9 Agishbatoi          0     0     NA         2          0
## 10 Shirdi-Mokhk        0     1      0         1          0
## # ℹ 308 more rows
```
…
